Startups Business Analytics
…
At last, a visualization that is pleasant to look at. From the figure, it seems that most startups actually succeed regardless of the industry. Why dont we get some exact numbers? Below, we will create a new variable called success_percent which displays the percentage of successful companies per industry.

industry_frequencies %>% 
  mutate(success_percent = round(success / (success+failed) * 100, 1)) %>% 
  arrange(desc(success_percent), desc(success))

## # A tibble: 40 x 4
##    industry        failed success success_percent
##    <chr>            <dbl>   <dbl>           <dbl>
##  1 retail               0   15.0              100
##  2 security             0    6.00             100
##  3 hospitality          0    4.00             100
##  4 deals                0    3.00             100
##  5 real_estate          0    3.00             100
##  6 crowdfunding         0    2.00             100
##  7 pharmaceuticals      0    1.00             100
##  8 insurance            0    1.00             100
##  9 travel               0    1.00             100
## 10 government           0    1.00             100
## # ... with 30 more rows
…
